---
http_interactions:
- request:
    method: get
    uri: https://api.pexels.com/v1/search?query=denver,co
    body:
      encoding: US-ASCII
      string: ''
    headers:
      User-Agent:
      - Faraday v1.1.0
      Authorization:
      - PEXELS_API_KEY
      Accept-Encoding:
      - gzip;q=1.0,deflate;q=0.6,identity;q=0.3
      Accept:
      - "*/*"
  response:
    status:
      code: 200
      message: OK
    headers:
      Date:
      - Wed, 11 Nov 2020 05:05:43 GMT
      Content-Type:
      - application/json; charset=utf-8
      Content-Length:
      - '1786'
      Connection:
      - keep-alive
      Set-Cookie:
      - __cfduid=d9f78d4a44aca6e676d89acf2ab7b50061604985633; expires=Thu, 10-Dec-20
        05:20:33 GMT; path=/; domain=.pexels.com; HttpOnly; SameSite=Lax
      - __cfduid=dfe824aef676c3be499dec2a79c2453cb1605071143; expires=Fri, 11-Dec-20
        05:05:43 GMT; path=/; domain=.pexels.com; HttpOnly; SameSite=Lax
      Cache-Control:
      - max-age=0, private, must-revalidate
      Cf-Cache-Status:
      - DYNAMIC
      Cf-Request-Id:
      - 06574b1a3900003630a8366000000001
      Expect-Ct:
      - max-age=604800, report-uri="https://report-uri.cloudflare.com/cdn-cgi/beacon/expect-ct"
      Vary:
      - Origin
      X-Frame-Options:
      - ALLOWALL
      X-Ratelimit-Limit:
      - '20000'
      X-Ratelimit-Remaining:
      - '19954'
      X-Ratelimit-Reset:
      - '1607504286'
      X-Request-Id:
      - 48fd6cc4-cc21-451f-80a0-aae5cbd7da63
      X-Runtime:
      - '0.187872'
      X-Server:
      - master
      X-Tyk-Cached-Response:
      - '1'
      Server:
      - cloudflare
      Cf-Ray:
      - 5f057ad6c9cc3630-LAX
    body:
      encoding: ASCII-8BIT
      string: '{"page":1,"per_page":15,"photos":[{"id":3184423,"width":4004,"height":6000,"url":"https://www.pexels.com/photo/photo-of-people-holding-each-other-s-hands-3184423/","photographer":"fauxels","photographer_url":"https://www.pexels.com/@fauxels","photographer_id":1281351,"src":{"original":"https://images.pexels.com/photos/3184423/pexels-photo-3184423.jpeg","large2x":"https://images.pexels.com/photos/3184423/pexels-photo-3184423.jpeg?auto=compress\u0026cs=tinysrgb\u0026dpr=2\u0026h=650\u0026w=940","large":"https://images.pexels.com/photos/3184423/pexels-photo-3184423.jpeg?auto=compress\u0026cs=tinysrgb\u0026h=650\u0026w=940","medium":"https://images.pexels.com/photos/3184423/pexels-photo-3184423.jpeg?auto=compress\u0026cs=tinysrgb\u0026h=350","small":"https://images.pexels.com/photos/3184423/pexels-photo-3184423.jpeg?auto=compress\u0026cs=tinysrgb\u0026h=130","portrait":"https://images.pexels.com/photos/3184423/pexels-photo-3184423.jpeg?auto=compress\u0026cs=tinysrgb\u0026fit=crop\u0026h=1200\u0026w=800","landscape":"https://images.pexels.com/photos/3184423/pexels-photo-3184423.jpeg?auto=compress\u0026cs=tinysrgb\u0026fit=crop\u0026h=627\u0026w=1200","tiny":"https://images.pexels.com/photos/3184423/pexels-photo-3184423.jpeg?auto=compress\u0026cs=tinysrgb\u0026dpr=1\u0026fit=crop\u0026h=200\u0026w=280"},"liked":false},{"id":3153198,"width":3781,"height":2521,"url":"https://www.pexels.com/photo/woman-sharing-her-presentation-with-her-colleagues-3153198/","photographer":"Canva
        Studio","photographer_url":"https://www.pexels.com/@canvastudio","photographer_id":1614591,"src":{"original":"https://images.pexels.com/photos/3153198/pexels-photo-3153198.jpeg","large2x":"https://images.pexels.com/photos/3153198/pexels-photo-3153198.jpeg?auto=compress\u0026cs=tinysrgb\u0026dpr=2\u0026h=650\u0026w=940","large":"https://images.pexels.com/photos/3153198/pexels-photo-3153198.jpeg?auto=compress\u0026cs=tinysrgb\u0026h=650\u0026w=940","medium":"https://images.pexels.com/photos/3153198/pexels-photo-3153198.jpeg?auto=compress\u0026cs=tinysrgb\u0026h=350","small":"https://images.pexels.com/photos/3153198/pexels-photo-3153198.jpeg?auto=compress\u0026cs=tinysrgb\u0026h=130","portrait":"https://images.pexels.com/photos/3153198/pexels-photo-3153198.jpeg?auto=compress\u0026cs=tinysrgb\u0026fit=crop\u0026h=1200\u0026w=800","landscape":"https://images.pexels.com/photos/3153198/pexels-photo-3153198.jpeg?auto=compress\u0026cs=tinysrgb\u0026fit=crop\u0026h=627\u0026w=1200","tiny":"https://images.pexels.com/photos/3153198/pexels-photo-3153198.jpeg?auto=compress\u0026cs=tinysrgb\u0026dpr=1\u0026fit=crop\u0026h=200\u0026w=280"},"liked":false},{"id":3183165,"width":4004,"height":6000,"url":"https://www.pexels.com/photo/top-view-photo-of-people-having-a-meeting-3183165/","photographer":"fauxels","photographer_url":"https://www.pexels.com/@fauxels","photographer_id":1281351,"src":{"original":"https://images.pexels.com/photos/3183165/pexels-photo-3183165.jpeg","large2x":"https://images.pexels.com/photos/3183165/pexels-photo-3183165.jpeg?auto=compress\u0026cs=tinysrgb\u0026dpr=2\u0026h=650\u0026w=940","large":"https://images.pexels.com/photos/3183165/pexels-photo-3183165.jpeg?auto=compress\u0026cs=tinysrgb\u0026h=650\u0026w=940","medium":"https://images.pexels.com/photos/3183165/pexels-photo-3183165.jpeg?auto=compress\u0026cs=tinysrgb\u0026h=350","small":"https://images.pexels.com/photos/3183165/pexels-photo-3183165.jpeg?auto=compress\u0026cs=tinysrgb\u0026h=130","portrait":"https://images.pexels.com/photos/3183165/pexels-photo-3183165.jpeg?auto=compress\u0026cs=tinysrgb\u0026fit=crop\u0026h=1200\u0026w=800","landscape":"https://images.pexels.com/photos/3183165/pexels-photo-3183165.jpeg?auto=compress\u0026cs=tinysrgb\u0026fit=crop\u0026h=627\u0026w=1200","tiny":"https://images.pexels.com/photos/3183165/pexels-photo-3183165.jpeg?auto=compress\u0026cs=tinysrgb\u0026dpr=1\u0026fit=crop\u0026h=200\u0026w=280"},"liked":false},{"id":3626622,"width":3750,"height":5625,"url":"https://www.pexels.com/photo/group-of-people-in-a-meeting-3626622/","photographer":"Daria
        Shevtsova","photographer_url":"https://www.pexels.com/@daria","photographer_id":220024,"src":{"original":"https://images.pexels.com/photos/3626622/pexels-photo-3626622.jpeg","large2x":"https://images.pexels.com/photos/3626622/pexels-photo-3626622.jpeg?auto=compress\u0026cs=tinysrgb\u0026dpr=2\u0026h=650\u0026w=940","large":"https://images.pexels.com/photos/3626622/pexels-photo-3626622.jpeg?auto=compress\u0026cs=tinysrgb\u0026h=650\u0026w=940","medium":"https://images.pexels.com/photos/3626622/pexels-photo-3626622.jpeg?auto=compress\u0026cs=tinysrgb\u0026h=350","small":"https://images.pexels.com/photos/3626622/pexels-photo-3626622.jpeg?auto=compress\u0026cs=tinysrgb\u0026h=130","portrait":"https://images.pexels.com/photos/3626622/pexels-photo-3626622.jpeg?auto=compress\u0026cs=tinysrgb\u0026fit=crop\u0026h=1200\u0026w=800","landscape":"https://images.pexels.com/photos/3626622/pexels-photo-3626622.jpeg?auto=compress\u0026cs=tinysrgb\u0026fit=crop\u0026h=627\u0026w=1200","tiny":"https://images.pexels.com/photos/3626622/pexels-photo-3626622.jpeg?auto=compress\u0026cs=tinysrgb\u0026dpr=1\u0026fit=crop\u0026h=200\u0026w=280"},"liked":false},{"id":3184338,"width":6000,"height":4000,"url":"https://www.pexels.com/photo/photo-of-three-people-smiling-while-having-a-meeting-3184338/","photographer":"fauxels","photographer_url":"https://www.pexels.com/@fauxels","photographer_id":1281351,"src":{"original":"https://images.pexels.com/photos/3184338/pexels-photo-3184338.jpeg","large2x":"https://images.pexels.com/photos/3184338/pexels-photo-3184338.jpeg?auto=compress\u0026cs=tinysrgb\u0026dpr=2\u0026h=650\u0026w=940","large":"https://images.pexels.com/photos/3184338/pexels-photo-3184338.jpeg?auto=compress\u0026cs=tinysrgb\u0026h=650\u0026w=940","medium":"https://images.pexels.com/photos/3184338/pexels-photo-3184338.jpeg?auto=compress\u0026cs=tinysrgb\u0026h=350","small":"https://images.pexels.com/photos/3184338/pexels-photo-3184338.jpeg?auto=compress\u0026cs=tinysrgb\u0026h=130","portrait":"https://images.pexels.com/photos/3184338/pexels-photo-3184338.jpeg?auto=compress\u0026cs=tinysrgb\u0026fit=crop\u0026h=1200\u0026w=800","landscape":"https://images.pexels.com/photos/3184338/pexels-photo-3184338.jpeg?auto=compress\u0026cs=tinysrgb\u0026fit=crop\u0026h=627\u0026w=1200","tiny":"https://images.pexels.com/photos/3184338/pexels-photo-3184338.jpeg?auto=compress\u0026cs=tinysrgb\u0026dpr=1\u0026fit=crop\u0026h=200\u0026w=280"},"liked":false},{"id":2566581,"width":4477,"height":2965,"url":"https://www.pexels.com/photo/top-view-photo-of-3-men-in-front-of-laptop-2566581/","photographer":"Visual
        Tag Mx","photographer_url":"https://www.pexels.com/@visual-tag-mx-1321732","photographer_id":1321732,"src":{"original":"https://images.pexels.com/photos/2566581/pexels-photo-2566581.jpeg","large2x":"https://images.pexels.com/photos/2566581/pexels-photo-2566581.jpeg?auto=compress\u0026cs=tinysrgb\u0026dpr=2\u0026h=650\u0026w=940","large":"https://images.pexels.com/photos/2566581/pexels-photo-2566581.jpeg?auto=compress\u0026cs=tinysrgb\u0026h=650\u0026w=940","medium":"https://images.pexels.com/photos/2566581/pexels-photo-2566581.jpeg?auto=compress\u0026cs=tinysrgb\u0026h=350","small":"https://images.pexels.com/photos/2566581/pexels-photo-2566581.jpeg?auto=compress\u0026cs=tinysrgb\u0026h=130","portrait":"https://images.pexels.com/photos/2566581/pexels-photo-2566581.jpeg?auto=compress\u0026cs=tinysrgb\u0026fit=crop\u0026h=1200\u0026w=800","landscape":"https://images.pexels.com/photos/2566581/pexels-photo-2566581.jpeg?auto=compress\u0026cs=tinysrgb\u0026fit=crop\u0026h=627\u0026w=1200","tiny":"https://images.pexels.com/photos/2566581/pexels-photo-2566581.jpeg?auto=compress\u0026cs=tinysrgb\u0026dpr=1\u0026fit=crop\u0026h=200\u0026w=280"},"liked":false},{"id":3182765,"width":6000,"height":4169,"url":"https://www.pexels.com/photo/photo-of-people-talking-to-each-other-3182765/","photographer":"fauxels","photographer_url":"https://www.pexels.com/@fauxels","photographer_id":1281351,"src":{"original":"https://images.pexels.com/photos/3182765/pexels-photo-3182765.jpeg","large2x":"https://images.pexels.com/photos/3182765/pexels-photo-3182765.jpeg?auto=compress\u0026cs=tinysrgb\u0026dpr=2\u0026h=650\u0026w=940","large":"https://images.pexels.com/photos/3182765/pexels-photo-3182765.jpeg?auto=compress\u0026cs=tinysrgb\u0026h=650\u0026w=940","medium":"https://images.pexels.com/photos/3182765/pexels-photo-3182765.jpeg?auto=compress\u0026cs=tinysrgb\u0026h=350","small":"https://images.pexels.com/photos/3182765/pexels-photo-3182765.jpeg?auto=compress\u0026cs=tinysrgb\u0026h=130","portrait":"https://images.pexels.com/photos/3182765/pexels-photo-3182765.jpeg?auto=compress\u0026cs=tinysrgb\u0026fit=crop\u0026h=1200\u0026w=800","landscape":"https://images.pexels.com/photos/3182765/pexels-photo-3182765.jpeg?auto=compress\u0026cs=tinysrgb\u0026fit=crop\u0026h=627\u0026w=1200","tiny":"https://images.pexels.com/photos/3182765/pexels-photo-3182765.jpeg?auto=compress\u0026cs=tinysrgb\u0026dpr=1\u0026fit=crop\u0026h=200\u0026w=280"},"liked":false},{"id":3182781,"width":6000,"height":4004,"url":"https://www.pexels.com/photo/man-wearing-white-long-sleeved-shirt-holding-black-pen-3182781/","photographer":"fauxels","photographer_url":"https://www.pexels.com/@fauxels","photographer_id":1281351,"src":{"original":"https://images.pexels.com/photos/3182781/pexels-photo-3182781.jpeg","large2x":"https://images.pexels.com/photos/3182781/pexels-photo-3182781.jpeg?auto=compress\u0026cs=tinysrgb\u0026dpr=2\u0026h=650\u0026w=940","large":"https://images.pexels.com/photos/3182781/pexels-photo-3182781.jpeg?auto=compress\u0026cs=tinysrgb\u0026h=650\u0026w=940","medium":"https://images.pexels.com/photos/3182781/pexels-photo-3182781.jpeg?auto=compress\u0026cs=tinysrgb\u0026h=350","small":"https://images.pexels.com/photos/3182781/pexels-photo-3182781.jpeg?auto=compress\u0026cs=tinysrgb\u0026h=130","portrait":"https://images.pexels.com/photos/3182781/pexels-photo-3182781.jpeg?auto=compress\u0026cs=tinysrgb\u0026fit=crop\u0026h=1200\u0026w=800","landscape":"https://images.pexels.com/photos/3182781/pexels-photo-3182781.jpeg?auto=compress\u0026cs=tinysrgb\u0026fit=crop\u0026h=627\u0026w=1200","tiny":"https://images.pexels.com/photos/3182781/pexels-photo-3182781.jpeg?auto=compress\u0026cs=tinysrgb\u0026dpr=1\u0026fit=crop\u0026h=200\u0026w=280"},"liked":false},{"id":3205568,"width":2691,"height":4029,"url":"https://www.pexels.com/photo/women-and-men-standing-near-table-3205568/","photographer":"cottonbro","photographer_url":"https://www.pexels.com/@cottonbro","photographer_id":1437723,"src":{"original":"https://images.pexels.com/photos/3205568/pexels-photo-3205568.jpeg","large2x":"https://images.pexels.com/photos/3205568/pexels-photo-3205568.jpeg?auto=compress\u0026cs=tinysrgb\u0026dpr=2\u0026h=650\u0026w=940","large":"https://images.pexels.com/photos/3205568/pexels-photo-3205568.jpeg?auto=compress\u0026cs=tinysrgb\u0026h=650\u0026w=940","medium":"https://images.pexels.com/photos/3205568/pexels-photo-3205568.jpeg?auto=compress\u0026cs=tinysrgb\u0026h=350","small":"https://images.pexels.com/photos/3205568/pexels-photo-3205568.jpeg?auto=compress\u0026cs=tinysrgb\u0026h=130","portrait":"https://images.pexels.com/photos/3205568/pexels-photo-3205568.jpeg?auto=compress\u0026cs=tinysrgb\u0026fit=crop\u0026h=1200\u0026w=800","landscape":"https://images.pexels.com/photos/3205568/pexels-photo-3205568.jpeg?auto=compress\u0026cs=tinysrgb\u0026fit=crop\u0026h=627\u0026w=1200","tiny":"https://images.pexels.com/photos/3205568/pexels-photo-3205568.jpeg?auto=compress\u0026cs=tinysrgb\u0026dpr=1\u0026fit=crop\u0026h=200\u0026w=280"},"liked":false},{"id":3182826,"width":6000,"height":4000,"url":"https://www.pexels.com/photo/shallow-focus-photo-of-people-discussing-3182826/","photographer":"fauxels","photographer_url":"https://www.pexels.com/@fauxels","photographer_id":1281351,"src":{"original":"https://images.pexels.com/photos/3182826/pexels-photo-3182826.jpeg","large2x":"https://images.pexels.com/photos/3182826/pexels-photo-3182826.jpeg?auto=compress\u0026cs=tinysrgb\u0026dpr=2\u0026h=650\u0026w=940","large":"https://images.pexels.com/photos/3182826/pexels-photo-3182826.jpeg?auto=compress\u0026cs=tinysrgb\u0026h=650\u0026w=940","medium":"https://images.pexels.com/photos/3182826/pexels-photo-3182826.jpeg?auto=compress\u0026cs=tinysrgb\u0026h=350","small":"https://images.pexels.com/photos/3182826/pexels-photo-3182826.jpeg?auto=compress\u0026cs=tinysrgb\u0026h=130","portrait":"https://images.pexels.com/photos/3182826/pexels-photo-3182826.jpeg?auto=compress\u0026cs=tinysrgb\u0026fit=crop\u0026h=1200\u0026w=800","landscape":"https://images.pexels.com/photos/3182826/pexels-photo-3182826.jpeg?auto=compress\u0026cs=tinysrgb\u0026fit=crop\u0026h=627\u0026w=1200","tiny":"https://images.pexels.com/photos/3182826/pexels-photo-3182826.jpeg?auto=compress\u0026cs=tinysrgb\u0026dpr=1\u0026fit=crop\u0026h=200\u0026w=280"},"liked":false},{"id":3182784,"width":6000,"height":4004,"url":"https://www.pexels.com/photo/top-view-photo-of-people-handshaking-3182784/","photographer":"fauxels","photographer_url":"https://www.pexels.com/@fauxels","photographer_id":1281351,"src":{"original":"https://images.pexels.com/photos/3182784/pexels-photo-3182784.jpeg","large2x":"https://images.pexels.com/photos/3182784/pexels-photo-3182784.jpeg?auto=compress\u0026cs=tinysrgb\u0026dpr=2\u0026h=650\u0026w=940","large":"https://images.pexels.com/photos/3182784/pexels-photo-3182784.jpeg?auto=compress\u0026cs=tinysrgb\u0026h=650\u0026w=940","medium":"https://images.pexels.com/photos/3182784/pexels-photo-3182784.jpeg?auto=compress\u0026cs=tinysrgb\u0026h=350","small":"https://images.pexels.com/photos/3182784/pexels-photo-3182784.jpeg?auto=compress\u0026cs=tinysrgb\u0026h=130","portrait":"https://images.pexels.com/photos/3182784/pexels-photo-3182784.jpeg?auto=compress\u0026cs=tinysrgb\u0026fit=crop\u0026h=1200\u0026w=800","landscape":"https://images.pexels.com/photos/3182784/pexels-photo-3182784.jpeg?auto=compress\u0026cs=tinysrgb\u0026fit=crop\u0026h=627\u0026w=1200","tiny":"https://images.pexels.com/photos/3182784/pexels-photo-3182784.jpeg?auto=compress\u0026cs=tinysrgb\u0026dpr=1\u0026fit=crop\u0026h=200\u0026w=280"},"liked":false},{"id":3182773,"width":6000,"height":4004,"url":"https://www.pexels.com/photo/top-view-photo-of-group-of-people-using-macbook-while-discussing-3182773/","photographer":"fauxels","photographer_url":"https://www.pexels.com/@fauxels","photographer_id":1281351,"src":{"original":"https://images.pexels.com/photos/3182773/pexels-photo-3182773.jpeg","large2x":"https://images.pexels.com/photos/3182773/pexels-photo-3182773.jpeg?auto=compress\u0026cs=tinysrgb\u0026dpr=2\u0026h=650\u0026w=940","large":"https://images.pexels.com/photos/3182773/pexels-photo-3182773.jpeg?auto=compress\u0026cs=tinysrgb\u0026h=650\u0026w=940","medium":"https://images.pexels.com/photos/3182773/pexels-photo-3182773.jpeg?auto=compress\u0026cs=tinysrgb\u0026h=350","small":"https://images.pexels.com/photos/3182773/pexels-photo-3182773.jpeg?auto=compress\u0026cs=tinysrgb\u0026h=130","portrait":"https://images.pexels.com/photos/3182773/pexels-photo-3182773.jpeg?auto=compress\u0026cs=tinysrgb\u0026fit=crop\u0026h=1200\u0026w=800","landscape":"https://images.pexels.com/photos/3182773/pexels-photo-3182773.jpeg?auto=compress\u0026cs=tinysrgb\u0026fit=crop\u0026h=627\u0026w=1200","tiny":"https://images.pexels.com/photos/3182773/pexels-photo-3182773.jpeg?auto=compress\u0026cs=tinysrgb\u0026dpr=1\u0026fit=crop\u0026h=200\u0026w=280"},"liked":false},{"id":3194523,"width":7952,"height":5304,"url":"https://www.pexels.com/photo/photo-of-man-using-laptop-3194523/","photographer":"Canva
        Studio","photographer_url":"https://www.pexels.com/@canvastudio","photographer_id":1614591,"src":{"original":"https://images.pexels.com/photos/3194523/pexels-photo-3194523.jpeg","large2x":"https://images.pexels.com/photos/3194523/pexels-photo-3194523.jpeg?auto=compress\u0026cs=tinysrgb\u0026dpr=2\u0026h=650\u0026w=940","large":"https://images.pexels.com/photos/3194523/pexels-photo-3194523.jpeg?auto=compress\u0026cs=tinysrgb\u0026h=650\u0026w=940","medium":"https://images.pexels.com/photos/3194523/pexels-photo-3194523.jpeg?auto=compress\u0026cs=tinysrgb\u0026h=350","small":"https://images.pexels.com/photos/3194523/pexels-photo-3194523.jpeg?auto=compress\u0026cs=tinysrgb\u0026h=130","portrait":"https://images.pexels.com/photos/3194523/pexels-photo-3194523.jpeg?auto=compress\u0026cs=tinysrgb\u0026fit=crop\u0026h=1200\u0026w=800","landscape":"https://images.pexels.com/photos/3194523/pexels-photo-3194523.jpeg?auto=compress\u0026cs=tinysrgb\u0026fit=crop\u0026h=627\u0026w=1200","tiny":"https://images.pexels.com/photos/3194523/pexels-photo-3194523.jpeg?auto=compress\u0026cs=tinysrgb\u0026dpr=1\u0026fit=crop\u0026h=200\u0026w=280"},"liked":false},{"id":3184299,"width":5732,"height":3821,"url":"https://www.pexels.com/photo/photo-of-man-sitting-in-front-of-people-3184299/","photographer":"fauxels","photographer_url":"https://www.pexels.com/@fauxels","photographer_id":1281351,"src":{"original":"https://images.pexels.com/photos/3184299/pexels-photo-3184299.jpeg","large2x":"https://images.pexels.com/photos/3184299/pexels-photo-3184299.jpeg?auto=compress\u0026cs=tinysrgb\u0026dpr=2\u0026h=650\u0026w=940","large":"https://images.pexels.com/photos/3184299/pexels-photo-3184299.jpeg?auto=compress\u0026cs=tinysrgb\u0026h=650\u0026w=940","medium":"https://images.pexels.com/photos/3184299/pexels-photo-3184299.jpeg?auto=compress\u0026cs=tinysrgb\u0026h=350","small":"https://images.pexels.com/photos/3184299/pexels-photo-3184299.jpeg?auto=compress\u0026cs=tinysrgb\u0026h=130","portrait":"https://images.pexels.com/photos/3184299/pexels-photo-3184299.jpeg?auto=compress\u0026cs=tinysrgb\u0026fit=crop\u0026h=1200\u0026w=800","landscape":"https://images.pexels.com/photos/3184299/pexels-photo-3184299.jpeg?auto=compress\u0026cs=tinysrgb\u0026fit=crop\u0026h=627\u0026w=1200","tiny":"https://images.pexels.com/photos/3184299/pexels-photo-3184299.jpeg?auto=compress\u0026cs=tinysrgb\u0026dpr=1\u0026fit=crop\u0026h=200\u0026w=280"},"liked":false},{"id":3205570,"width":4240,"height":2832,"url":"https://www.pexels.com/photo/man-and-woman-leaning-on-table-staring-at-white-board-on-top-of-table-having-a-meeting-3205570/","photographer":"cottonbro","photographer_url":"https://www.pexels.com/@cottonbro","photographer_id":1437723,"src":{"original":"https://images.pexels.com/photos/3205570/pexels-photo-3205570.jpeg","large2x":"https://images.pexels.com/photos/3205570/pexels-photo-3205570.jpeg?auto=compress\u0026cs=tinysrgb\u0026dpr=2\u0026h=650\u0026w=940","large":"https://images.pexels.com/photos/3205570/pexels-photo-3205570.jpeg?auto=compress\u0026cs=tinysrgb\u0026h=650\u0026w=940","medium":"https://images.pexels.com/photos/3205570/pexels-photo-3205570.jpeg?auto=compress\u0026cs=tinysrgb\u0026h=350","small":"https://images.pexels.com/photos/3205570/pexels-photo-3205570.jpeg?auto=compress\u0026cs=tinysrgb\u0026h=130","portrait":"https://images.pexels.com/photos/3205570/pexels-photo-3205570.jpeg?auto=compress\u0026cs=tinysrgb\u0026fit=crop\u0026h=1200\u0026w=800","landscape":"https://images.pexels.com/photos/3205570/pexels-photo-3205570.jpeg?auto=compress\u0026cs=tinysrgb\u0026fit=crop\u0026h=627\u0026w=1200","tiny":"https://images.pexels.com/photos/3205570/pexels-photo-3205570.jpeg?auto=compress\u0026cs=tinysrgb\u0026dpr=1\u0026fit=crop\u0026h=200\u0026w=280"},"liked":false}],"total_results":467,"next_page":"https://api.pexels.com/v1/search/?page=2\u0026per_page=15\u0026query=denver%2Cco"}'
  recorded_at: Wed, 11 Nov 2020 05:05:43 GMT
recorded_with: VCR 6.0.0
